<svg xmlns="http://www.w3.org/2000/svg" width="180.98" height="36.666" viewBox="0 0 180.98 36.666">
  <g id="Group_2" data-name="Group 2" transform="translate(2009.704 5994.008)">
    <path id="Path_1" data-name="Path 1" d="M-1574.309-5951.873h4.392v26.275h-4.392Z" transform="translate(-376.266 -36.413)" fill="#fff"/>
    <path id="Path_2" data-name="Path 2" d="M-1475.865-5925.6h-4.429l-13.063-18.693v18.693h-4.392v-26.275h4.429l13.1,18.693v-18.693h4.354Z" transform="translate(-442.429 -36.413)" fill="#fff"/>
    <path id="Path_3" data-name="Path 3" d="M-1288.276-5947.481v6.569h10.923v4.354h-10.923v10.96h-4.392v-26.275h17.53v4.392Z" transform="translate(-619.659 -36.413)" fill="#fff"/>
    <path id="Path_4" data-name="Path 4" d="M-1111.1-5929.989v4.392h-14.114v-26.275h4.392v21.884Z" transform="translate(-764.374 -36.413)" fill="#fff"/>
    <path id="Path_5" data-name="Path 5" d="M-1013.615-5951.873l-9.872,13.851v12.424h-4.392v-12.424l-9.872-13.851h5.368l6.719,9.384,6.682-9.384Z" transform="translate(-839.957 -36.413)" fill="#fff"/>
    <path id="Path_6" data-name="Path 6" d="M-845.4-5938.735l-9.384-13.138h5.368l6.719,9.384,6.681-9.384h5.368l-9.384,13.138,9.384,13.138h-5.368l-6.681-9.384-6.719,9.384h-5.368Z" transform="translate(-998.078 -36.413)" fill="#fff"/>
    <g id="Group_1" data-name="Group 1" transform="translate(-2009.704 -5994.008)">
      <path id="Path_7" data-name="Path 7" d="M-1964.337-5986l-13.143-7.588a3.158,3.158,0,0,0-3.158,0l-5.594,3.229-5.594-3.229a3.158,3.158,0,0,0-3.158,0l-13.142,7.588a3.157,3.157,0,0,0-1.579,2.735v15.175a3.157,3.157,0,0,0,1.579,2.735l13.142,7.588a3.158,3.158,0,0,0,3.158,0l5.594-3.229,5.594,3.229a3.158,3.158,0,0,0,3.158,0l13.143-7.588a3.158,3.158,0,0,0,1.579-2.735v-15.175A3.158,3.158,0,0,0-1964.337-5986Zm-2.888,17.155-11.833,6.832-2.706-1.562-4.467-2.579-4.467,2.579-2.706,1.562-11.833-6.832v-13.665l11.833-6.832,2.706,1.563,4.467,2.579,4.467-2.579,2.706-1.562,11.833,6.832Z" transform="translate(2009.704 5994.008)" fill="#fff"/>
    </g>
  </g>
</svg>
